[?25l[?7l[0m[34m[1m          /:-------------:\
       :-------------------::
     :-----------[37m[0m[1m/shhOHbmp[0m[34m[1m---:\
   /-----------[37m[0m[1momMMMNNNMMD  [0m[34m[1m---:
  :-----------[37m[0m[1msMMMMNMNMP[0m[34m[1m.    ---:
 :-----------[37m[0m[1m:MMMdP[0m[34m[1m-------    ---\
,------------[37m[0m[1m:MMMd[0m[34m[1m--------    ---:
:------------[37m[0m[1m:MMMd[0m[34m[1m-------    .---:
:----    [37m[0m[1moNMMMMMMMMMNho[0m[34m[1m     .----:
:--     .[37m[0m[1m+shhhMMMmhhy++[0m[34m[1m   .------/
:-    -------[37m[0m[1m:MMMd[0m[34m[1m--------------:
:-   --------[37m[0m[1m/MMMd[0m[34m[1m-------------;
:-    ------[37m[0m[1m/hMMMy[0m[34m[1m------------:
:--[37m[0m[1m :dMNdhhdNMMNo[0m[34m[1m------------;
:---[37m[0m[1m:sdNMMMMNds:[0m[34m[1m------------:
:------[37m[0m[1m:://:[0m[34m[1m-------------::
:---------------------://[0m
[17A[9999999D


















[?25h[?7h