[?25l[?7l[0m[33m[1m                 ..
               .PLTJ.
              <><><><>
     [0m[32m[1mKKSSV' 4KKK [0m[33m[1mLJ[0m[35m[1m KKKL.'VSSKK
     [0m[32m[1mKKV' 4KKKKK [0m[33m[1mLJ[0m[35m[1m KKKKAL 'VKK
     [0m[32m[1mV' ' 'VKKKK [0m[33m[1mLJ[0m[35m[1m KKKKV' ' 'V
     [0m[32m[1m.4MA.' 'VKK [0m[33m[1mLJ[0m[35m[1m KKV' '.4Mb.
[0m[35m[1m   . [0m[32m[1mKKKKKA.' 'V [0m[33m[1mLJ[0m[35m[1m V' '.4KKKKK [0m[34m[1m.
[0m[35m[1m .4D [0m[32m[1mKKKKKKKA.'' [0m[33m[1mLJ[0m[35m[1m ''.4KKKKKKK [0m[34m[1mFA.
[0m[35m[1m<QDD ++++++++++++  [0m[34m[1m++++++++++++ GFD>
[0m[35m[1m 'VD [0m[34m[1mKKKKKKKK'.. [0m[32m[1mLJ [0m[33m[1m..'KKKKKKKK [0m[34m[1mFV
[0m[35m[1m   ' [0m[34m[1mVKKKKK'. .4 [0m[32m[1mLJ [0m[33m[1mK. .'KKKKKV [0m[34m[1m'
     [0m[34m[1m 'VK'. .4KK [0m[32m[1mLJ [0m[33m[1mKKA. .'KV'
     [0m[34m[1mA. . .4KKKK [0m[32m[1mLJ [0m[33m[1mKKKKA. . .4
     [0m[34m[1mKKA. 'KKKKK [0m[32m[1mLJ [0m[33m[1mKKKKK' .4KK
     [0m[34m[1mKKSSA. VKKK [0m[32m[1mLJ [0m[33m[1mKKKV .4SSKK
[0m[32m[1m              <><><><>
               'MKKM'
                 ''[0m
[19A[9999999D




















[?25h[?7h