[?25l[?7l[0m[31m[1m           .MMM..:MMMMMMM
          MMMMMMMMMMMMMMMMMM
          MMMMMMMMMMMMMMMMMMMM.
         MMMMMMMMMMMMMMMMMMMMMM
        ,MMMMMMMMMMMMMMMMMMMMMM:
        MMMMMMMMMMMMMMMMMMMMMMMM
  .MMMM'  MMMMMMMMMMMMMMMMMMMMMM
 MMMMMM    `MMMMMMMMMMMMMMMMMMMM.
MMMMMMMM      MMMMMMMMMMMMMMMMMM .
MMMMMMMMM.       `MMMMMMMMMMMMM' MM.
MMMMMMMMMMM.                     MMMM
`MMMMMMMMMMMMM.                 ,MMMMM.
 `MMMMMMMMMMMMMMMMM.          ,MMMMMMMM.
    MMMMMMMMMMMMMMMMMMMMMMMMMMMMMMMMMMMM
      MMMMMMMMMMMMMMMMMMMMMMMMMMMMMMMMM:
         MMMMMMMMMMMMMMMMMMMMMMMMMMMMMM
            `MMMMMMMMMMMMMMMMMMMMMMMM:
                ``MMMMMMMMMMMMMMMMM'[0m
[18A[9999999D



















[?25h[?7h